^D:\ALGO\LAB03FULL\LAB03FULL\DEBUG\LAB03FULL.OBJ|D:\ALGO\LAB03FULL\LAB03FULL\DEBUG\PCH.OBJ
D:\ALGO\LAB03FULL\DEBUG\LAB03FULL.EXE
D:\ALGO\LAB03FULL\DEBUG\LAB03FULL.ILK
D:\ALGO\LAB03FULL\DEBUG\LAB03FULL.PDB
